<svg width="24" height="24" fill="none" xmlns="http://www.w3.org/2000/svg">
    <path fill-rule="evenodd" clip-rule="evenodd" d="M17 8.5h1c1.1 0 2 .9 2 2v10c0 1.1-.9 2-2 2H6c-1.1 0-2-.9-2-2v-10c0-1.1.9-2 2-2h1v-2c0-2.76 2.24-5 5-5s5 2.24 5 5v2zm-5-5c-1.66 0-3 1.34-3 3v2h6v-2c0-1.66-1.34-3-3-3zm-6 17v-10h12v10H6zm8-5c0 1.1-.9 2-2 2s-2-.9-2-2 .9-2 2-2 2 .9 2 2z" fill="#495DD6"/>
</svg>
