<svg width="24" height="24" fill="none" xmlns="http://www.w3.org/2000/svg">
    <path fill-rule="evenodd" clip-rule="evenodd" d="M18.369 3.29l2.34 2.34c.39.39.39 1.02 0 1.41l-1.83 1.83-3.75-3.75 1.83-1.83c.19-.19.44-.29.7-.29.26 0 .51.09.71.29zM2.999 17.25V21h3.75l11.06-11.06-3.75-3.75-11.06 11.06zM5.919 19h-.92v-.92l9.06-9.06.92.92L5.919 19z" fill="#495DD6"/>
</svg>
