<svg width="24" height="24" fill="none" xmlns="http://www.w3.org/2000/svg">
    <path fill-rule="evenodd" clip-rule="evenodd" d="M9 22h9c.83 0 1.54-.5 1.84-1.22l3.02-7.05c.09-.23.14-.47.14-.73v-2c0-1.1-.9-2-2-2h-6.31l.95-4.57.03-.32c0-.41-.17-.79-.44-1.06L14.17 2 7.58 8.59C7.22 8.95 7 9.45 7 10v10c0 1.1.9 2 2 2zm0-12l4.34-4.34L12 11h9v2l-3 7H9V10zm-4 0H1v12h4V10z" fill="#8A9998"/>
</svg>
