<svg width="24" height="24" fill="none" xmlns="http://www.w3.org/2000/svg">
    <path fill-rule="evenodd" clip-rule="evenodd" d="M7.945 3.441L6.663 1.905 2.056 5.75l1.281 1.536L7.945 3.44zm9.392-1.535l4.607 3.843-1.281 1.536-4.608-3.843 1.282-1.536zM10.54 14.625l-2.13-2.13-1.06 1.06 3.18 3.18 6-6-1.06-1.06-4.93 4.95zM12 4.095a9 9 0 10.001 18.001A9 9 0 0012 4.095zm-7 9c0 3.86 3.14 7 7 7s7-3.14 7-7-3.14-7-7-7-7 3.14-7 7z" fill="#495DD6"/>
</svg>
