<svg width="10" height="19" viewBox="0 0 10 19" fill="none" xmlns="http://www.w3.org/2000/svg">
<path d="M2.71875 18.2597H6.03774V10.1741H8.61526L9.03896 6.96104H6.03774V4.73661C6.03774 4.24229 6.10836 3.8539 6.32021 3.60674C6.53206 3.32427 6.99107 3.18304 7.62662 3.18304H9.32143V0.323053C8.68588 0.252436 7.83847 0.181819 6.84984 0.181819C5.57873 0.181819 4.5901 0.570212 3.84862 1.31169C3.07183 2.05317 2.71875 3.07711 2.71875 4.41883V6.96104H0V10.1741H2.71875V18.2597Z" fill="#3C5A99"/>
</svg>
