<svg width="24" height="24" viewBox="0 0 24 24" fill="none" xmlns="http://www.w3.org/2000/svg">
<g id="icon/image/camera_alt_24px">
<path id="icon/image/camera_alt_24px_2" fill-rule="evenodd" clip-rule="evenodd" d="M16.83 5H20C21.1 5 22 5.9 22 7V19C22 20.1 21.1 21 20 21H4C2.9 21 2 20.1 2 19V7C2 5.9 2.9 5 4 5H7.17L9 3H15L16.83 5ZM4 19H20V7H15.95L14.12 5H9.88L8.05 7H4V19ZM12 8C9.24 8 7 10.24 7 13C7 15.76 9.24 18 12 18C14.76 18 17 15.76 17 13C17 10.24 14.76 8 12 8ZM9 13C9 14.65 10.35 16 12 16C13.65 16 15 14.65 15 13C15 11.35 13.65 10 12 10C10.35 10 9 11.35 9 13Z" fill="#8A9998"/>
</g>
</svg>
